// Validating benchmarks:
// ***** BenchmarkRunner: Start   *****
// ***** Found 2 benchmark(s) in total *****
// ***** Building 1 exe(s) in Parallel: Start   *****
BuildScript: C:\Repos\Benchmark\Benchmark\bin\Release\c3344baf-7f5b-4922-ad6f-e572325941a0.bat
// ***** Done, took 00:00:03 (3.17 sec)   *****
// Found 2 benchmarks:
//   Benchmark.GenerateClip1: DefaultJob
//   Benchmark.GenerateClip2: DefaultJob

// **************************
// Benchmark: Benchmark.GenerateClip1: DefaultJob
// *** Execute ***
// Launch: 1 / 1
// Execute: C:\Repos\Benchmark\Benchmark\bin\Release\c3344baf-7f5b-4922-ad6f-e572325941a0.exe --benchmarkName "Benchmark.Benchmark.GenerateClip1" --job "Default" --benchmarkId 0 in 
// BeforeAnythingElse

// Benchmark Process Environment Information:
// Runtime=.NET Framework 4.8 (4.8.4470.0), X86 LegacyJIT
// GC=Concurrent Workstation
// Job: DefaultJob

OverheadJitting  1: 1 op, 217500.00 ns, 217.5000 us/op
WorkloadJitting  1: 1 op, 127400.00 ns, 127.4000 us/op

OverheadJitting  2: 16 op, 148400.00 ns, 9.2750 us/op
WorkloadJitting  2: 16 op, 147100.00 ns, 9.1938 us/op

WorkloadPilot    1: 16 op, 3700.00 ns, 231.2500 ns/op
WorkloadPilot    2: 32 op, 400.00 ns, 12.5000 ns/op
WorkloadPilot    3: 64 op, 900.00 ns, 14.0625 ns/op
WorkloadPilot    4: 128 op, 900.00 ns, 7.0313 ns/op
WorkloadPilot    5: 256 op, 900.00 ns, 3.5156 ns/op
WorkloadPilot    6: 512 op, 1400.00 ns, 2.7344 ns/op
WorkloadPilot    7: 1024 op, 21100.00 ns, 20.6055 ns/op
WorkloadPilot    8: 2048 op, 4300.00 ns, 2.0996 ns/op
WorkloadPilot    9: 4096 op, 8200.00 ns, 2.0020 ns/op
WorkloadPilot   10: 8192 op, 28900.00 ns, 3.5278 ns/op
WorkloadPilot   11: 16384 op, 31500.00 ns, 1.9226 ns/op
WorkloadPilot   12: 32768 op, 62700.00 ns, 1.9135 ns/op
WorkloadPilot   13: 65536 op, 124900.00 ns, 1.9058 ns/op
WorkloadPilot   14: 131072 op, 473600.00 ns, 3.6133 ns/op
WorkloadPilot   15: 262144 op, 706900.00 ns, 2.6966 ns/op
WorkloadPilot   16: 524288 op, 1209500.00 ns, 2.3069 ns/op
WorkloadPilot   17: 1048576 op, 2038100.00 ns, 1.9437 ns/op
WorkloadPilot   18: 2097152 op, 4199500.00 ns, 2.0025 ns/op
WorkloadPilot   19: 4194304 op, 9175200.00 ns, 2.1875 ns/op
WorkloadPilot   20: 8388608 op, 16042300.00 ns, 1.9124 ns/op
WorkloadPilot   21: 16777216 op, 30893000.00 ns, 1.8414 ns/op
WorkloadPilot   22: 33554432 op, 68067400.00 ns, 2.0286 ns/op
WorkloadPilot   23: 67108864 op, 119463800.00 ns, 1.7801 ns/op
WorkloadPilot   24: 134217728 op, 281294700.00 ns, 2.0958 ns/op
WorkloadPilot   25: 268435456 op, 506027200.00 ns, 1.8851 ns/op

OverheadWarmup   1: 268435456 op, 503536400.00 ns, 1.8758 ns/op
OverheadWarmup   2: 268435456 op, 518859900.00 ns, 1.9329 ns/op
OverheadWarmup   3: 268435456 op, 508745100.00 ns, 1.8952 ns/op
OverheadWarmup   4: 268435456 op, 501678200.00 ns, 1.8689 ns/op
OverheadWarmup   5: 268435456 op, 503966600.00 ns, 1.8774 ns/op
OverheadWarmup   6: 268435456 op, 492026700.00 ns, 1.8329 ns/op

OverheadActual   1: 268435456 op, 503067000.00 ns, 1.8741 ns/op
OverheadActual   2: 268435456 op, 504154100.00 ns, 1.8781 ns/op
OverheadActual   3: 268435456 op, 495182300.00 ns, 1.8447 ns/op
OverheadActual   4: 268435456 op, 526195000.00 ns, 1.9602 ns/op
OverheadActual   5: 268435456 op, 507813300.00 ns, 1.8918 ns/op
OverheadActual   6: 268435456 op, 490058700.00 ns, 1.8256 ns/op
OverheadActual   7: 268435456 op, 511358700.00 ns, 1.9050 ns/op
OverheadActual   8: 268435456 op, 501578500.00 ns, 1.8685 ns/op
OverheadActual   9: 268435456 op, 516508000.00 ns, 1.9241 ns/op
OverheadActual  10: 268435456 op, 496527300.00 ns, 1.8497 ns/op
OverheadActual  11: 268435456 op, 487465600.00 ns, 1.8160 ns/op
OverheadActual  12: 268435456 op, 497722500.00 ns, 1.8542 ns/op
OverheadActual  13: 268435456 op, 515891200.00 ns, 1.9218 ns/op
OverheadActual  14: 268435456 op, 488024000.00 ns, 1.8180 ns/op
OverheadActual  15: 268435456 op, 496895700.00 ns, 1.8511 ns/op

WorkloadWarmup   1: 268435456 op, 509900500.00 ns, 1.8995 ns/op
WorkloadWarmup   2: 268435456 op, 501459700.00 ns, 1.8681 ns/op
WorkloadWarmup   3: 268435456 op, 502713800.00 ns, 1.8728 ns/op
WorkloadWarmup   4: 268435456 op, 503000400.00 ns, 1.8738 ns/op
WorkloadWarmup   5: 268435456 op, 495853200.00 ns, 1.8472 ns/op
WorkloadWarmup   6: 268435456 op, 515479400.00 ns, 1.9203 ns/op
WorkloadWarmup   7: 268435456 op, 499341500.00 ns, 1.8602 ns/op

// BeforeActualRun
WorkloadActual   1: 268435456 op, 493975500.00 ns, 1.8402 ns/op
WorkloadActual   2: 268435456 op, 511304100.00 ns, 1.9048 ns/op
WorkloadActual   3: 268435456 op, 500956700.00 ns, 1.8662 ns/op
WorkloadActual   4: 268435456 op, 491644500.00 ns, 1.8315 ns/op
WorkloadActual   5: 268435456 op, 500935100.00 ns, 1.8661 ns/op
WorkloadActual   6: 268435456 op, 508435400.00 ns, 1.8941 ns/op
WorkloadActual   7: 268435456 op, 498170600.00 ns, 1.8558 ns/op
WorkloadActual   8: 268435456 op, 509221400.00 ns, 1.8970 ns/op
WorkloadActual   9: 268435456 op, 490352400.00 ns, 1.8267 ns/op
WorkloadActual  10: 268435456 op, 497380700.00 ns, 1.8529 ns/op
WorkloadActual  11: 268435456 op, 515410300.00 ns, 1.9201 ns/op
WorkloadActual  12: 268435456 op, 494232300.00 ns, 1.8412 ns/op
WorkloadActual  13: 268435456 op, 493979800.00 ns, 1.8402 ns/op
WorkloadActual  14: 268435456 op, 512769500.00 ns, 1.9102 ns/op
WorkloadActual  15: 268435456 op, 498048000.00 ns, 1.8554 ns/op

// AfterActualRun
WorkloadResult   1: 268435456 op, 0.00 ns, 0.0000 ns/op
WorkloadResult   2: 268435456 op, 9725600.00 ns, 0.0362 ns/op
WorkloadResult   3: 268435456 op, 0.00 ns, 0.0000 ns/op
WorkloadResult   4: 268435456 op, 0.00 ns, 0.0000 ns/op
WorkloadResult   5: 268435456 op, 0.00 ns, 0.0000 ns/op
WorkloadResult   6: 268435456 op, 6856900.00 ns, 0.0255 ns/op
WorkloadResult   7: 268435456 op, 0.00 ns, 0.0000 ns/op
WorkloadResult   8: 268435456 op, 7642900.00 ns, 0.0285 ns/op
WorkloadResult   9: 268435456 op, 0.00 ns, 0.0000 ns/op
WorkloadResult  10: 268435456 op, 0.00 ns, 0.0000 ns/op
WorkloadResult  11: 268435456 op, 13831800.00 ns, 0.0515 ns/op
WorkloadResult  12: 268435456 op, 0.00 ns, 0.0000 ns/op
WorkloadResult  13: 268435456 op, 0.00 ns, 0.0000 ns/op
WorkloadResult  14: 268435456 op, 11191000.00 ns, 0.0417 ns/op
WorkloadResult  15: 268435456 op, 0.00 ns, 0.0000 ns/op

// AfterAll
// Benchmark Process 25020 has exited with code 0.

Mean = 0.012 ns, StdErr = 0.005 ns (39.59%), N = 15, StdDev = 0.019 ns
Min = 0.000 ns, Q1 = 0.000 ns, Median = 0.000 ns, Q3 = 0.027 ns, Max = 0.052 ns
IQR = 0.027 ns, LowerFence = -0.041 ns, UpperFence = 0.068 ns
ConfidenceInterval = [-0.008 ns; 0.032 ns] (CI 99.9%), Margin = 0.020 ns (163.94% of Mean)
Skewness = 0.89, Kurtosis = 2.04, MValue = 2.8

// **************************
// Benchmark: Benchmark.GenerateClip2: DefaultJob
// *** Execute ***
// Launch: 1 / 1
// Execute: C:\Repos\Benchmark\Benchmark\bin\Release\c3344baf-7f5b-4922-ad6f-e572325941a0.exe --benchmarkName "Benchmark.Benchmark.GenerateClip2" --job "Default" --benchmarkId 1 in 
// BeforeAnythingElse

// Benchmark Process Environment Information:
// Runtime=.NET Framework 4.8 (4.8.4470.0), X86 LegacyJIT
// GC=Concurrent Workstation
// Job: DefaultJob

OverheadJitting  1: 1 op, 219800.00 ns, 219.8000 us/op
WorkloadJitting  1: 1 op, 113000.00 ns, 113.0000 us/op

OverheadJitting  2: 16 op, 285900.00 ns, 17.8688 us/op
WorkloadJitting  2: 16 op, 175500.00 ns, 10.9688 us/op

WorkloadPilot    1: 16 op, 4000.00 ns, 250.0000 ns/op
WorkloadPilot    2: 32 op, 400.00 ns, 12.5000 ns/op
WorkloadPilot    3: 64 op, 500.00 ns, 7.8125 ns/op
WorkloadPilot    4: 128 op, 500.00 ns, 3.9063 ns/op
WorkloadPilot    5: 256 op, 900.00 ns, 3.5156 ns/op
WorkloadPilot    6: 512 op, 1300.00 ns, 2.5391 ns/op
WorkloadPilot    7: 1024 op, 2200.00 ns, 2.1484 ns/op
WorkloadPilot    8: 2048 op, 4000.00 ns, 1.9531 ns/op
WorkloadPilot    9: 4096 op, 8000.00 ns, 1.9531 ns/op
WorkloadPilot   10: 8192 op, 15600.00 ns, 1.9043 ns/op
WorkloadPilot   11: 16384 op, 30600.00 ns, 1.8677 ns/op
WorkloadPilot   12: 32768 op, 60700.00 ns, 1.8524 ns/op
WorkloadPilot   13: 65536 op, 121000.00 ns, 1.8463 ns/op
WorkloadPilot   14: 131072 op, 327600.00 ns, 2.4994 ns/op
WorkloadPilot   15: 262144 op, 621400.00 ns, 2.3705 ns/op
WorkloadPilot   16: 524288 op, 1216000.00 ns, 2.3193 ns/op
WorkloadPilot   17: 1048576 op, 2010900.00 ns, 1.9177 ns/op
WorkloadPilot   18: 2097152 op, 3926200.00 ns, 1.8722 ns/op
WorkloadPilot   19: 4194304 op, 9401200.00 ns, 2.2414 ns/op
WorkloadPilot   20: 8388608 op, 15829000.00 ns, 1.8870 ns/op
WorkloadPilot   21: 16777216 op, 30367600.00 ns, 1.8101 ns/op
WorkloadPilot   22: 33554432 op, 58744600.00 ns, 1.7507 ns/op
WorkloadPilot   23: 67108864 op, 132204900.00 ns, 1.9700 ns/op
WorkloadPilot   24: 134217728 op, 247785300.00 ns, 1.8461 ns/op
WorkloadPilot   25: 268435456 op, 522912000.00 ns, 1.9480 ns/op

OverheadWarmup   1: 268435456 op, 525115400.00 ns, 1.9562 ns/op
OverheadWarmup   2: 268435456 op, 537300900.00 ns, 2.0016 ns/op
OverheadWarmup   3: 268435456 op, 515013900.00 ns, 1.9186 ns/op
OverheadWarmup   4: 268435456 op, 541120600.00 ns, 2.0158 ns/op
OverheadWarmup   5: 268435456 op, 529252100.00 ns, 1.9716 ns/op

OverheadActual   1: 268435456 op, 499865800.00 ns, 1.8621 ns/op
OverheadActual   2: 268435456 op, 512476600.00 ns, 1.9091 ns/op
OverheadActual   3: 268435456 op, 516288900.00 ns, 1.9233 ns/op
OverheadActual   4: 268435456 op, 506984200.00 ns, 1.8887 ns/op
OverheadActual   5: 268435456 op, 490042800.00 ns, 1.8256 ns/op
OverheadActual   6: 268435456 op, 489718500.00 ns, 1.8243 ns/op
OverheadActual   7: 268435456 op, 572102400.00 ns, 2.1312 ns/op
OverheadActual   8: 268435456 op, 509563500.00 ns, 1.8983 ns/op
OverheadActual   9: 268435456 op, 533651100.00 ns, 1.9880 ns/op
OverheadActual  10: 268435456 op, 517695400.00 ns, 1.9286 ns/op
OverheadActual  11: 268435456 op, 545817000.00 ns, 2.0333 ns/op
OverheadActual  12: 268435456 op, 515895200.00 ns, 1.9219 ns/op
OverheadActual  13: 268435456 op, 562679300.00 ns, 2.0961 ns/op
OverheadActual  14: 268435456 op, 560983900.00 ns, 2.0898 ns/op
OverheadActual  15: 268435456 op, 506217600.00 ns, 1.8858 ns/op
OverheadActual  16: 268435456 op, 529710700.00 ns, 1.9733 ns/op

WorkloadWarmup   1: 268435456 op, 500818000.00 ns, 1.8657 ns/op
WorkloadWarmup   2: 268435456 op, 493967900.00 ns, 1.8402 ns/op
WorkloadWarmup   3: 268435456 op, 513865500.00 ns, 1.9143 ns/op
WorkloadWarmup   4: 268435456 op, 502972800.00 ns, 1.8737 ns/op
WorkloadWarmup   5: 268435456 op, 528210600.00 ns, 1.9677 ns/op
WorkloadWarmup   6: 268435456 op, 506398500.00 ns, 1.8865 ns/op

// BeforeActualRun
WorkloadActual   1: 268435456 op, 506616000.00 ns, 1.8873 ns/op
WorkloadActual   2: 268435456 op, 506659900.00 ns, 1.8875 ns/op
WorkloadActual   3: 268435456 op, 490970800.00 ns, 1.8290 ns/op
WorkloadActual   4: 268435456 op, 492825000.00 ns, 1.8359 ns/op
WorkloadActual   5: 268435456 op, 507601000.00 ns, 1.8910 ns/op
WorkloadActual   6: 268435456 op, 494142700.00 ns, 1.8408 ns/op
WorkloadActual   7: 268435456 op, 484843600.00 ns, 1.8062 ns/op
WorkloadActual   8: 268435456 op, 496969100.00 ns, 1.8514 ns/op
WorkloadActual   9: 268435456 op, 534949200.00 ns, 1.9928 ns/op
WorkloadActual  10: 268435456 op, 501774500.00 ns, 1.8693 ns/op
WorkloadActual  11: 268435456 op, 509103300.00 ns, 1.8966 ns/op
WorkloadActual  12: 268435456 op, 492505500.00 ns, 1.8347 ns/op
WorkloadActual  13: 268435456 op, 507868700.00 ns, 1.8920 ns/op
WorkloadActual  14: 268435456 op, 504833900.00 ns, 1.8807 ns/op
WorkloadActual  15: 268435456 op, 484720300.00 ns, 1.8057 ns/op

// AfterActualRun
WorkloadResult   1: 268435456 op, 0.00 ns, 0.0000 ns/op
WorkloadResult   2: 268435456 op, 0.00 ns, 0.0000 ns/op
WorkloadResult   3: 268435456 op, 0.00 ns, 0.0000 ns/op
WorkloadResult   4: 268435456 op, 0.00 ns, 0.0000 ns/op
WorkloadResult   5: 268435456 op, 0.00 ns, 0.0000 ns/op
WorkloadResult   6: 268435456 op, 0.00 ns, 0.0000 ns/op
WorkloadResult   7: 268435456 op, 0.00 ns, 0.0000 ns/op
WorkloadResult   8: 268435456 op, 0.00 ns, 0.0000 ns/op
WorkloadResult   9: 268435456 op, 0.00 ns, 0.0000 ns/op
WorkloadResult  10: 268435456 op, 0.00 ns, 0.0000 ns/op
WorkloadResult  11: 268435456 op, 0.00 ns, 0.0000 ns/op
WorkloadResult  12: 268435456 op, 0.00 ns, 0.0000 ns/op
WorkloadResult  13: 268435456 op, 0.00 ns, 0.0000 ns/op
WorkloadResult  14: 268435456 op, 0.00 ns, 0.0000 ns/op

// AfterAll
// Benchmark Process 4144 has exited with code 0.

Mean = 0.000 ns, StdErr = 0.000 ns (NaN%), N = 14, StdDev = 0.000 ns
Min = 0.000 ns, Q1 = 0.000 ns, Median = 0.000 ns, Q3 = 0.000 ns, Max = 0.000 ns
IQR = 0.000 ns, LowerFence = 0.000 ns, UpperFence = 0.000 ns
ConfidenceInterval = [0.000 ns; 0.000 ns] (CI 99.9%), Margin = 0.000 ns (NaN% of Mean)
Skewness = NaN, Kurtosis = NaN, MValue = 2

// ***** BenchmarkRunner: Finish  *****

// * Export *
  BenchmarkDotNet.Artifacts\results\Benchmark.Benchmark-report.csv
  BenchmarkDotNet.Artifacts\results\Benchmark.Benchmark-report-github.md
  BenchmarkDotNet.Artifacts\results\Benchmark.Benchmark-report.html

// * Detailed results *
Benchmark.GenerateClip1: DefaultJob
Runtime = .NET Framework 4.8 (4.8.4470.0), X86 LegacyJIT; GC = Concurrent Workstation
Mean = 0.012 ns, StdErr = 0.005 ns (39.59%), N = 15, StdDev = 0.019 ns
Min = 0.000 ns, Q1 = 0.000 ns, Median = 0.000 ns, Q3 = 0.027 ns, Max = 0.052 ns
IQR = 0.027 ns, LowerFence = -0.041 ns, UpperFence = 0.068 ns
ConfidenceInterval = [-0.008 ns; 0.032 ns] (CI 99.9%), Margin = 0.020 ns (163.94% of Mean)
Skewness = 0.89, Kurtosis = 2.04, MValue = 2.8
-------------------- Histogram --------------------
[-0.010 ns ; 0.010 ns) | @@@@@@@@@@
[ 0.010 ns ; 0.024 ns) | 
[ 0.024 ns ; 0.044 ns) | @@@@
[ 0.044 ns ; 0.062 ns) | @
---------------------------------------------------

Benchmark.GenerateClip2: DefaultJob
Runtime = .NET Framework 4.8 (4.8.4470.0), X86 LegacyJIT; GC = Concurrent Workstation
Mean = 0.000 ns, StdErr = 0.000 ns (NaN%), N = 14, StdDev = 0.000 ns
Min = 0.000 ns, Q1 = 0.000 ns, Median = 0.000 ns, Q3 = 0.000 ns, Max = 0.000 ns
IQR = 0.000 ns, LowerFence = 0.000 ns, UpperFence = 0.000 ns
ConfidenceInterval = [0.000 ns; 0.000 ns] (CI 99.9%), Margin = 0.000 ns (NaN% of Mean)
Skewness = NaN, Kurtosis = NaN, MValue = 2
-------------------- Histogram --------------------
[-0.500 ns ; 0.500 ns) | @@@@@@@@@@@@@@
---------------------------------------------------

// * Summary *

BenchmarkDotNet=v0.13.1, OS=Windows 10.0.19044.1645 (21H2)
Intel Core i7-6700HQ CPU 2.60GHz (Skylake), 1 CPU, 8 logical and 4 physical cores
  [Host]     : .NET Framework 4.8 (4.8.4470.0), X86 LegacyJIT  [AttachedDebugger]
  DefaultJob : .NET Framework 4.8 (4.8.4470.0), X86 LegacyJIT


|        Method |      Mean |     Error |    StdDev | Median | Rank | SizeAfterCreation |
|-------------- |----------:|----------:|----------:|-------:|-----:|------------------:|
| GenerateClip1 | 0.0122 ns | 0.0201 ns | 0.0188 ns | 0.0 ns |    1 |                   |
| GenerateClip2 | 0.0000 ns | 0.0000 ns | 0.0000 ns | 0.0 ns |    1 |                   |

// * Warnings *
ZeroMeasurement
  Benchmark.GenerateClip1: Default -> The method duration is indistinguishable from the empty method duration
  Benchmark.GenerateClip2: Default -> The method duration is indistinguishable from the empty method duration
Environment
  Summary -> Benchmark was executed with attached debugger

// * Hints *
Outliers
  Benchmark.GenerateClip2: Default -> 1 outlier  was  removed (1.99 ns)

// * Legends *
  Mean              : Arithmetic mean of all measurements
  Error             : Half of 99.9% confidence interval
  StdDev            : Standard deviation of all measurements
  Median            : Value separating the higher half of all measurements (50th percentile)
  Rank              : Relative position of current benchmark mean among all benchmarks (Arabic style)
  SizeAfterCreation : Allocated memory on disk after clip is created
  1 ns              : 1 Nanosecond (0.000000001 sec)

// ***** BenchmarkRunner: End *****
// ** Remained 0 benchmark(s) to run **
Run time: 00:00:47 (47.73 sec), executed benchmarks: 2

Global total time: 00:00:50 (50.91 sec), executed benchmarks: 2
// * Artifacts cleanup *
